<svg width="20" height="21" viewBox="0 0 20 21" fill="none" xmlns="http://www.w3.org/2000/svg">
<path fill-rule="evenodd" clip-rule="evenodd" d="M3.79915 6.12966C3.79915 3.67142 5.77288 1.698 8.23082 1.698C10.6893 1.698 12.6625 3.67115 12.6625 6.12966C12.6625 8.58761 10.6891 10.5613 8.23082 10.5613C5.77314 10.5613 3.79915 8.58734 3.79915 6.12966ZM11.4125 6.12966C11.4125 4.36151 9.99897 2.948 8.23082 2.948C6.46319 2.948 5.04915 4.36182 5.04915 6.12966C5.04915 7.89699 6.4635 9.31133 8.23082 9.31133C9.99866 9.31133 11.4125 7.8973 11.4125 6.12966ZM1.66699 15.1272C1.66699 12.8734 4.03948 12.078 8.23116 12.078L8.50129 12.0792C12.5148 12.114 14.7953 12.9375 14.7953 15.1447C14.7953 17.2999 12.6237 18.1219 8.76741 18.1893L8.23116 18.1939C4.05001 18.1939 1.66699 17.3835 1.66699 15.1272ZM13.5453 15.1447C13.5453 13.9446 11.7324 13.328 8.23116 13.328L7.95056 13.3294C4.62813 13.3612 2.91699 13.9663 2.91699 15.1272C2.91699 16.3273 4.72994 16.9439 8.23116 16.9439C11.7368 16.9439 13.5453 16.3374 13.5453 15.1447ZM18.333 8.92619C18.333 8.58101 18.0532 8.30119 17.708 8.30119H14.2996L14.2148 8.30689C13.9098 8.34828 13.6746 8.60978 13.6746 8.92619C13.6746 9.27137 13.9545 9.55119 14.2996 9.55119H17.708L17.7928 9.54548C18.0978 9.5041 18.333 9.2426 18.333 8.92619Z" fill="#8587DC"/>
</svg>
