<svg width="24" height="24" viewBox="0 0 24 24" fill="none" xmlns="http://www.w3.org/2000/svg">
<rect width="24" height="24" fill="white"/>
<path fill-rule="evenodd" clip-rule="evenodd" d="M5.49511 8.63033H8.48393C9.1811 8.60804 9.1811 9.6433 8.48393 9.62101H6.00157V10.9428H7.21999C7.90355 10.9338 7.90355 11.9422 7.21999 11.9332H6.00157V13.6998C6.02464 14.3822 4.96677 14.3822 4.98983 13.6998V9.12639C4.98983 8.85376 5.2163 8.63206 5.49511 8.63033ZM16.5421 8.62309C18.0219 8.62309 19.1815 9.90754 19.1815 11.4209C19.1815 11.932 19.0479 12.4145 18.8152 12.8318L19.2279 13.1395C19.7651 13.5389 19.1522 14.3273 18.615 13.9279L18.1839 13.6069C17.736 13.9852 17.1675 14.2158 16.5424 14.2158C15.0609 14.2158 13.9016 12.9346 13.9016 11.4212C13.9016 9.90783 15.0606 8.62309 16.5421 8.62309ZM11.4234 8.88357L13.4883 13.459C13.7824 14.083 12.9558 14.5756 12.6829 13.9397L12.2054 12.8816H9.83539L9.35968 13.9397C9.0856 14.5756 8.25864 14.083 8.55312 13.459L10.6198 8.88357C10.783 8.52353 11.2525 8.50848 11.4234 8.88357ZM12.1548 2.00262C11.1387 1.98005 10.15 2.10363 9.21362 2.35572C5.46702 3.35942 2.56128 6.40614 2.1104 10.0748C1.65922 13.7438 2.62189 16.3894 4.43251 18.349L3.5609 20.7666C3.26111 21.6007 3.79832 22.2452 4.63592 21.9092L7.69245 20.6826C8.64418 21.1121 9.68195 21.4076 10.7862 21.5373C16.2941 22.187 21.2419 18.5134 21.9228 12.98C22.6049 7.44776 18.6886 2.7253 13.1808 2.07527C12.8357 2.03417 12.494 2.01015 12.1548 2.00262Z" fill="#8C8C8C"/>
</svg>
