<svg width="29" height="29" viewBox="0 0 29 29" fill="none" xmlns="http://www.w3.org/2000/svg">
<path d="M26.7564 12.1172H15.9664C15.4906 12.1172 15.1055 12.5023 15.1055 12.9781V16.4275C15.1055 16.9033 15.4906 17.2885 15.9664 17.2885H22.0439C21.3812 19.016 20.1352 20.4604 18.5549 21.3779L21.1434 25.8639C25.2951 23.4623 27.7533 19.2426 27.7533 14.5244C27.7533 13.8504 27.7023 13.3689 27.6061 12.8309C27.5268 12.4174 27.1699 12.1172 26.7564 12.1172Z" fill="#167EE6"/>
<path d="M14.5291 22.4646C11.5555 22.4646 8.96133 20.8391 7.56797 18.4375L3.08203 21.0203C5.36465 24.9795 9.64102 27.6416 14.5291 27.6416C16.9307 27.6416 19.1906 26.9959 21.1447 25.8688V25.8631L18.5563 21.3771C17.3668 22.0682 15.9961 22.4646 14.5291 22.4646Z" fill="#12B347"/>
<path d="M21.1373 25.8666V25.8609L18.5488 21.375C17.365 22.0604 15.9943 22.4625 14.5273 22.4625V27.6395C16.9289 27.6395 19.1889 26.9938 21.1373 25.8666Z" fill="#0F993E"/>
<path d="M6.47969 14.4168C6.47969 12.9498 6.88184 11.5791 7.56719 10.3953L3.08125 7.8125C1.94844 9.75527 1.30273 12.0096 1.30273 14.4168C1.30273 16.824 1.94844 19.0783 3.08125 21.0211L7.56719 18.4383C6.87617 17.2545 6.47969 15.8838 6.47969 14.4168Z" fill="#FFD500"/>
<path d="M14.5291 6.36445C16.4662 6.36445 18.2504 7.05547 19.6381 8.19961C19.9836 8.48281 20.482 8.46016 20.7936 8.14863L23.2348 5.70742C23.5916 5.35059 23.5633 4.76719 23.1838 4.43867C20.8559 2.41094 17.8256 1.1875 14.5291 1.1875C9.64102 1.1875 5.36465 3.84961 3.08203 7.80879L7.56797 10.3916C8.96133 7.99004 11.5555 6.36445 14.5291 6.36445Z" fill="#FF4B26"/>
<path d="M19.6363 8.19961C19.9818 8.48281 20.4803 8.46016 20.7918 8.14863L23.233 5.70742C23.5898 5.35059 23.5615 4.76719 23.182 4.43867C20.8541 2.41094 17.8238 1.1875 14.5273 1.1875V6.36445C16.4645 6.36445 18.2486 7.0498 19.6363 8.19961Z" fill="#D93F21"/>
</svg>
