<svg width="24" height="24" viewBox="0 0 24 24" fill="none" xmlns="http://www.w3.org/2000/svg">
<rect width="24" height="24" fill="white"/>
<g clip-path="url(#clip0_818_18629)">
<rect x="9.38281" y="11.9062" width="6.12305" height="6.3457" fill="#8C8C8C"/>
<path d="M6.04297 3.55664C6.04297 3.24938 5.79359 3 5.48633 3C5.17906 3 4.92969 3.24938 4.92969 3.55664V4.11328H6.04297V3.55664Z" fill="#8C8C8C"/>
<path d="M9.38281 3.55664C9.38281 3.24938 9.13344 3 8.82617 3C8.51891 3 8.26953 3.24938 8.26953 3.55664V4.11328H9.38281V3.55664Z" fill="#8C8C8C"/>
<path d="M12.7227 3.55664C12.7227 3.24938 12.4733 3 12.166 3C11.8588 3 11.6094 3.24938 11.6094 3.55664V4.11328H12.7227V3.55664Z" fill="#8C8C8C"/>
<path d="M16.0625 3.55664C16.0625 3.24938 15.8131 3 15.5059 3C15.1986 3 14.9492 3.24938 14.9492 3.55664V4.11328H16.0625V3.55664Z" fill="#8C8C8C"/>
<path d="M19.4023 3.55664C19.4023 3.24938 19.153 3 18.8457 3C18.5384 3 18.2891 3.24938 18.2891 3.55664V4.11328H19.4023V3.55664Z" fill="#8C8C8C"/>
<path d="M19.9961 4.10938H19.4023V5.7793C19.4023 6.08656 19.153 6.33594 18.8457 6.33594C18.5384 6.33594 18.2891 6.08656 18.2891 5.7793V4.10938H16.0625V5.7793C16.0625 6.08656 15.8131 6.33594 15.5059 6.33594C15.1986 6.33594 14.9492 6.08656 14.9492 5.7793V4.10938H12.7227V5.7793C12.7227 6.08656 12.4733 6.33594 12.166 6.33594C11.8588 6.33594 11.6094 6.08656 11.6094 5.7793V4.10938H9.38281V5.7793C9.38281 6.08656 9.13344 6.33594 8.82617 6.33594C8.51891 6.33594 8.26953 6.08656 8.26953 5.7793V4.10938H6.04297V5.7793C6.04297 6.08656 5.79359 6.33594 5.48633 6.33594C5.17906 6.33594 4.92969 6.08656 4.92969 5.7793V4.10938H4.33594C3.41525 4.10938 2.66602 4.85861 2.66602 5.7793V8.5625H21.666V5.7793C21.666 4.85861 20.9168 4.10938 19.9961 4.10938Z" fill="#8C8C8C"/>
<path d="M2.66602 20.3301C2.66602 21.2508 3.41525 22 4.33594 22H19.9961C20.9168 22 21.666 21.2508 21.666 20.3301V9.67969H2.66602V20.3301ZM11.0156 12.4629H13.2422C13.4136 12.4629 13.5754 12.5419 13.6809 12.677C13.7864 12.8121 13.8238 12.9882 13.7822 13.1545L12.6689 17.6077C12.6057 17.8606 12.3788 18.0294 12.1294 18.0294C12.0846 18.0294 12.0392 18.024 11.9939 18.0127C11.6957 17.9381 11.5143 17.6359 11.5889 17.3377L12.5292 13.5762H11.0156C10.7082 13.5762 10.459 13.3269 10.459 13.0195C10.459 12.7121 10.7082 12.4629 11.0156 12.4629Z" fill="#8C8C8C"/>
</g>
<defs>
<clipPath id="clip0_818_18629">
<rect width="19" height="19" fill="white" transform="translate(2.66602 3)"/>
</clipPath>
</defs>
</svg>
