<svg width="24" height="25" viewBox="0 0 24 25" fill="none" xmlns="http://www.w3.org/2000/svg">
<path d="M16.2541 4.30356C16.5522 4.59576 16.5793 5.05301 16.3354 5.37522L16.2541 5.46753L9.52658 12.0625L16.2541 18.6575C16.5522 18.9497 16.5793 19.4069 16.3354 19.7291L16.2541 19.8214C15.956 20.1136 15.4896 20.1402 15.161 19.9011L15.0668 19.8214L7.7459 12.6445C7.44784 12.3523 7.42074 11.895 7.66461 11.5728L7.7459 11.4805L15.0668 4.30356C15.3947 3.98215 15.9262 3.98215 16.2541 4.30356Z" fill="#363636"/>
</svg>
