<svg width="24" height="24" viewBox="0 0 24 24" fill="none" xmlns="http://www.w3.org/2000/svg">
<path d="M17.2179 13.3397C18.4002 10.4347 18.7018 7.36808 18.2356 4.78875C18.1803 4.48316 17.9061 4.32217 17.6713 4.45755C15.6902 5.60021 13.8605 7.76975 12.6781 10.6747C11.4073 13.7968 11.154 17.1058 11.7779 19.7958C13.9285 18.7345 15.9471 16.4618 17.2179 13.3397Z" fill="#8C8C8C"/>
<path d="M6.78945 13.3397C5.60711 10.4347 5.30555 7.36808 5.77176 4.78875C5.82702 4.48316 6.10126 4.32217 6.33599 4.45755C8.31709 5.60021 10.1468 7.76975 11.3292 10.6747C12.6 13.7968 12.8533 17.1058 12.2294 19.7958C10.0788 18.7345 8.06024 16.4618 6.78945 13.3397Z" fill="#8C8C8C"/>
<path d="M12.5637 2.47196L12.0837 2.44556C10.5929 4.68276 9.79883 7.51645 9.79883 11.0331C9.79883 14.7807 10.3682 18.1306 12.0333 20.382C13.6984 18.1306 14.7578 14.7807 14.7578 11.0331C14.7578 7.70069 13.9201 4.6827 12.5637 2.47196Z" fill="#8C8C8C"/>
<path d="M10.3648 11.0918C10.3648 7.75968 11.2153 4.74135 12.5714 2.53066C12.4963 2.40824 12.42 2.2889 12.3418 2.17148C12.1894 1.94284 11.8925 1.94284 11.7402 2.17148C10.2493 4.40863 9.31641 7.57516 9.31641 11.0918C9.31641 14.8394 10.3759 18.1893 12.041 20.4407C12.2237 20.1936 12.3977 19.9311 12.5652 19.6586C11.206 17.4472 10.3648 14.4282 10.3648 11.0918Z" fill="#8C8C8C"/>
<path d="M18.8573 20.1794C21.1192 19.1762 22.8982 17.4207 23.9379 15.4084C24.0771 15.139 23.9701 14.7912 23.7186 14.6952C21.8393 13.9775 19.5373 14.0321 17.2754 15.0353C14.8225 16.1233 12.9374 18.0959 11.9473 20.3214C13.9042 21.2397 16.4044 21.2674 18.8573 20.1794Z" fill="#8C8C8C"/>
<path d="M5.14216 20.1794C2.88026 19.1762 1.10125 17.4207 0.0615343 15.4084C-0.0776231 15.139 0.0293345 14.7912 0.28084 14.6952C2.1601 13.9775 4.46217 14.0321 6.72408 15.0353C9.17698 16.1233 11.062 18.0959 12.0522 20.3214C10.0952 21.2397 7.59506 21.2674 5.14216 20.1794Z" fill="#8C8C8C"/>
<path d="M15.5847 11.7802C17.6553 9.29356 20.1794 7.84677 22.5508 7.53088C22.7931 7.49857 23.0031 7.75068 22.9762 8.04175C22.7131 10.8897 21.5084 13.921 19.4378 16.4076C17.2313 19.0576 14.5098 20.5266 12.0068 20.7046L11.7129 19.9821L12.0029 19.5031C12.0029 19.5031 12.1547 19.2788 12.1557 19.2729C12.5633 16.6877 13.7246 14.0142 15.5847 11.7802Z" fill="#8C8C8C"/>
<path d="M8.43465 11.6855C6.52188 9.38837 4.22215 7.97861 2.01326 7.52808L1.62695 8.01396C1.88999 10.8619 2.88415 13.3796 4.95473 15.8663C7.16128 18.5162 9.22451 20.0742 11.7275 20.2521L11.8968 19.4084C11.5233 16.7522 10.35 13.9858 8.43465 11.6855Z" fill="#8C8C8C"/>
<path d="M11.9991 19.5031C9.78733 19.0546 7.37202 17.6456 5.45653 15.3452C3.54385 13.0483 2.37885 10.2755 2.00361 7.6228C1.82123 7.58559 1.63985 7.55497 1.45897 7.53088C1.21661 7.49857 1.00668 7.75068 1.03358 8.04175C1.29662 10.8897 2.50132 13.921 4.5719 16.4077C6.77845 19.0577 9.49997 20.5267 12.0029 20.7046L11.9991 19.5031Z" fill="#8C8C8C"/>
</svg>
