<svg width="8" height="14" viewBox="0 0 8 14" fill="none" xmlns="http://www.w3.org/2000/svg">
<path d="M1 13L7 7L1 1" stroke="#3E3E3E" stroke-width="1.6" stroke-linecap="round" stroke-linejoin="round"/>
</svg>
