{
  "migIndex": 1,
  "data": [
    {
      "path": "src/assets/fonts/nunito/Nunito-Bold.ttf",
      "sha1": "dea5eec0aca2aef62e3bfc625cf95f9d45b59687"
    },
    {
      "path": "src/assets/fonts/nunito/Nunito-ExtraBold.ttf",
      "sha1": "60821838f6675153f0699c6a86ad8467a937e0f5"
    },
    {
      "path": "src/assets/fonts/nunito/Nunito-ExtraLight.ttf",
      "sha1": "5147803c00983715429e5f492938c8a3e6552839"
    },
    {
      "path": "src/assets/fonts/nunito/Nunito-Light.ttf",
      "sha1": "7879b46e377513f6eb1c52f99000c8e96f36cf6e"
    },
    {
      "path": "src/assets/fonts/nunito/Nunito-Medium.ttf",
      "sha1": "0e3a9789daa6603bf6870c124727c3643b56574a"
    },
    {
      "path": "src/assets/fonts/nunito/Nunito-Regular.ttf",
      "sha1": "4b7236ba666cb77f00d8cb2a17696cc0dc2b2cc9"
    },
    {
      "path": "src/assets/fonts/nunito/Nunito-SemiBold.ttf",
      "sha1": "876165d70aa2e00f66737c7dd87039e2619bf2c2"
    }
  ]
}
